{
  "log": {
    "version": "1.2",
    "creator": {
      "name": "WebInspector",
      "version": "537.36"
    },
    "pages": [
      {
        "startedDateTime": "2018-12-31T07:23:16.575Z",
        "id": "page_7",
        "title": "http://acm.ut.ac.ir:8888/checkout/18123110520001cws1/",
        "pageTimings": {
          "onContentLoad": 1287.068999999974,
          "onLoad": 2914.257000000134
        }
      }
    ],
    "entries": [
      {
        "startedDateTime": "2018-12-31T07:23:16.574Z",
        "time": 178.42600000017228,
        "request": {
          "method": "GET",
          "url": "http://acm.ut.ac.ir:8888/checkout/18123110520001cws1/",
          "httpVersion": "HTTP/1.1",
          "headers": [
            {
              "name": "Host",
              "value": "acm.ut.ac.ir:8888"
            },
            {
              "name": "Connection",
              "value": "keep-alive"
            },
            {
              "name": "Pragma",
              "value": "no-cache"
            },
            {
              "name": "Cache-Control",
              "value": "no-cache"
            },
            {
              "name": "Upgrade-Insecure-Requests",
              "value": "1"
            },
            {
              "name": "User-Agent",
              "value": "Mozilla/5.0 (Macintosh; Intel Mac OS X 10_14_2) AppleWebKit/537.36 (KHTML, like Gecko) Chrome/71.0.3578.98 Safari/537.36"
            },
            {
              "name": "Accept",
              "value": "text/html,application/xhtml+xml,application/xml;q=0.9,image/webp,image/apng,*/*;q=0.8"
            },
            {
              "name": "Referer",
              "value": "http://acm.ut.ac.ir:8888/checkout/"
            },
            {
              "name": "Accept-Encoding",
              "value": "gzip, deflate"
            },
            {
              "name": "Accept-Language",
              "value": "en-GB,en;q=0.9,fa;q=0.8"
            },
            {
              "name": "Cookie",
              "value": "_ga=GA1.3.399930531.1538323182; visit=154624088703203243"
            }
          ],
          "queryString": [],
          "cookies": [
            {
              "name": "_ga",
              "value": "GA1.3.399930531.1538323182",
              "expires": null,
              "httpOnly": false,
              "secure": false
            },
            {
              "name": "visit",
              "value": "154624088703203243",
              "expires": null,
              "httpOnly": false,
              "secure": false
            }
          ],
          "headersSize": 580,
          "bodySize": 0
        },
        "response": {
          "status": 200,
          "statusText": "OK",
          "httpVersion": "HTTP/1.1",
          "headers": [
            {
              "name": "Cache-Control",
              "value": "private, no-cache, no-store, max-age=0"
            },
            {
              "name": "Vary",
              "value": "Accept-Encoding"
            },
            {
              "name": "Content-Encoding",
              "value": "gzip"
            },
            {
              "name": "Expires",
              "value": "-1"
            },
            {
              "name": "X-Powered-By",
              "value": "Total.js"
            },
            {
              "name": "Content-Type",
              "value": "text/html; charset=utf-8"
            },
            {
              "name": "Date",
              "value": "Mon, 31 Dec 2018 07:23:16 GMT"
            },
            {
              "name": "Connection",
              "value": "keep-alive"
            },
            {
              "name": "Transfer-Encoding",
              "value": "chunked"
            }
          ],
          "cookies": [],
          "content": {
            "size": 7338,
            "mimeType": "text/html",
            "compression": 5017
          },
          "redirectURL": "",
          "headersSize": 287,
          "bodySize": 2321,
          "_transferSize": 2608
        },
        "cache": {},
        "timings": {
          "blocked": 2.2130000000160943,
          "dns": -1,
          "ssl": -1,
          "connect": -1,
          "send": 0.06500000000000017,
          "wait": 172.7820000000143,
          "receive": 3.3660000001418666,
          "_blocked_queueing": 0.5790000000160944
        },
        "serverIPAddress": "172.16.32.150",
        "_initiator": {
          "type": "script",
          "stack": {
            "callFrames": [
              {
                "functionName": "",
                "scriptId": "1596",
                "url": "http://acm.ut.ac.ir:8888/checkout/",
                "lineNumber": 0,
                "columnNumber": 12234
              }
            ],
            "parent": {
              "description": "setTimeout",
              "callFrames": [
                {
                  "functionName": "",
                  "scriptId": "1596",
                  "url": "http://acm.ut.ac.ir:8888/checkout/",
                  "lineNumber": 0,
                  "columnNumber": 12199
                },
                {
                  "functionName": "i.success",
                  "scriptId": "1593",
                  "url": "http://cdn.componentator.com/spa.min@14.js",
                  "lineNumber": 6,
                  "columnNumber": 44484
                },
                {
                  "functionName": "u",
                  "scriptId": "1593",
                  "url": "http://cdn.componentator.com/spa.min@14.js",
                  "lineNumber": 2,
                  "columnNumber": 27456
                },
                {
                  "functionName": "fireWith",
                  "scriptId": "1593",
                  "url": "http://cdn.componentator.com/spa.min@14.js",
                  "lineNumber": 2,
                  "columnNumber": 28201
                },
                {
                  "functionName": "k",
                  "scriptId": "1593",
                  "url": "http://cdn.componentator.com/spa.min@14.js",
                  "lineNumber": 2,
                  "columnNumber": 77650
                },
                {
                  "functionName": "",
                  "scriptId": "1593",
                  "url": "http://cdn.componentator.com/spa.min@14.js",
                  "lineNumber": 2,
                  "columnNumber": 79906
                }
              ]
            }
          }
        },
        "_priority": "VeryHigh",
        "connection": "4578",
        "pageref": "page_7"
      },
      {
        "startedDateTime": "2018-12-31T07:23:16.762Z",
        "time": 450.515000000025,
        "request": {
          "method": "GET",
          "url": "http://cdn.componentator.com/spa.min@14.css",
          "httpVersion": "http/1.1",
          "headers": [
            {
              "name": "Referer",
              "value": "http://acm.ut.ac.ir:8888/checkout/18123110520001cws1/"
            },
            {
              "name": "User-Agent",
              "value": "Mozilla/5.0 (Macintosh; Intel Mac OS X 10_14_2) AppleWebKit/537.36 (KHTML, like Gecko) Chrome/71.0.3578.98 Safari/537.36"
            }
          ],
          "queryString": [],
          "cookies": [],
          "headersSize": -1,
          "bodySize": 0
        },
        "response": {
          "status": 200,
          "statusText": "OK",
          "httpVersion": "http/1.1",
          "headers": [
            {
              "name": "Date",
              "value": "Mon, 31 Dec 2018 07:23:17 GMT"
            },
            {
              "name": "Content-Encoding",
              "value": "gzip"
            },
            {
              "name": "Last-Modified",
              "value": "Thu, 14 Jun 2018 08:54:11 GMT"
            },
            {
              "name": "Server",
              "value": "keycdn-engine"
            },
            {
              "name": "X-Edge-Location",
              "value": "nlam"
            },
            {
              "name": "ETag",
              "value": "W/\"5b222d33-cb04\""
            },
            {
              "name": "Vary",
              "value": "Accept-Encoding"
            },
            {
              "name": "Content-Type",
              "value": "text/css"
            },
            {
              "name": "Access-Control-Allow-Origin",
              "value": "*"
            },
            {
              "name": "Cache-Control",
              "value": "max-age=43200"
            },
            {
              "name": "Transfer-Encoding",
              "value": "chunked"
            },
            {
              "name": "Connection",
              "value": "keep-alive"
            },
            {
              "name": "Expires",
              "value": "Mon, 31 Dec 2018 19:23:17 GMT"
            }
          ],
          "cookies": [],
          "content": {
            "size": 51972,
            "mimeType": "text/css"
          },
          "redirectURL": "",
          "headersSize": -1,
          "bodySize": -1,
          "_transferSize": 13079
        },
        "cache": {},
        "timings": {
          "blocked": 9.919000000021871,
          "dns": 10.053,
          "ssl": -1,
          "connect": 125.36500000000001,
          "send": 0.5579999999999927,
          "wait": 302.08499999992324,
          "receive": 2.53500000007989,
          "_blocked_queueing": 1.0270000000218715
        },
        "serverIPAddress": "185.172.149.128",
        "_initiator": {
          "type": "parser",
          "url": "http://acm.ut.ac.ir:8888/checkout/18123110520001cws1/",
          "lineNumber": 0
        },
        "_priority": "VeryHigh",
        "connection": "4640",
        "pageref": "page_7"
      },
      {
        "startedDateTime": "2018-12-31T07:23:16.763Z",
        "time": 175.13300000018717,
        "request": {
          "method": "GET",
          "url": "http://fonts.googleapis.com/css?family=Source+Sans+Pro:400,200,700",
          "httpVersion": "http/1.1",
          "headers": [
            {
              "name": "Referer",
              "value": "http://acm.ut.ac.ir:8888/checkout/18123110520001cws1/"
            },
            {
              "name": "User-Agent",
              "value": "Mozilla/5.0 (Macintosh; Intel Mac OS X 10_14_2) AppleWebKit/537.36 (KHTML, like Gecko) Chrome/71.0.3578.98 Safari/537.36"
            }
          ],
          "queryString": [
            {
              "name": "family",
              "value": "Source+Sans+Pro:400,200,700"
            }
          ],
          "cookies": [],
          "headersSize": -1,
          "bodySize": 0
        },
        "response": {
          "status": 307,
          "statusText": "Internal Redirect",
          "httpVersion": "http/1.1",
          "headers": [
            {
              "name": "Location",
              "value": "https://fonts.googleapis.com/css?family=Source+Sans+Pro:400,200,700"
            },
            {
              "name": "Non-Authoritative-Reason",
              "value": "HSTS"
            }
          ],
          "cookies": [],
          "content": {
            "size": 0,
            "mimeType": "x-unknown"
          },
          "redirectURL": "https://fonts.googleapis.com/css?family=Source+Sans+Pro:400,200,700",
          "headersSize": -1,
          "bodySize": -1,
          "_transferSize": 0
        },
        "cache": {},
        "timings": {
          "blocked": 3.0260000000686995,
          "dns": -1,
          "ssl": -1,
          "connect": -1,
          "send": 0,
          "wait": 2.2089885476361815e-11,
          "receive": 172.10700000009638,
          "_blocked_queueing": 1.8640000000686996
        },
        "serverIPAddress": "",
        "_initiator": {
          "type": "parser",
          "url": "http://acm.ut.ac.ir:8888/checkout/18123110520001cws1/",
          "lineNumber": 0
        },
        "_priority": "VeryHigh",
        "pageref": "page_7"
      },
      {
        "startedDateTime": "2018-12-31T07:23:16.763Z",
        "time": 20.971000000145068,
        "request": {
          "method": "GET",
          "url": "http://acm.ut.ac.ir:8888/widgets.css?ts=1avy1",
          "httpVersion": "HTTP/1.1",
          "headers": [
            {
              "name": "Pragma",
              "value": "no-cache"
            },
            {
              "name": "Accept-Encoding",
              "value": "gzip, deflate"
            },
            {
              "name": "Host",
              "value": "acm.ut.ac.ir:8888"
            },
            {
              "name": "Accept-Language",
              "value": "en-GB,en;q=0.9,fa;q=0.8"
            },
            {
              "name": "User-Agent",
              "value": "Mozilla/5.0 (Macintosh; Intel Mac OS X 10_14_2) AppleWebKit/537.36 (KHTML, like Gecko) Chrome/71.0.3578.98 Safari/537.36"
            },
            {
              "name": "Accept",
              "value": "text/css,*/*;q=0.1"
            },
            {
              "name": "Referer",
              "value": "http://acm.ut.ac.ir:8888/checkout/18123110520001cws1/"
            },
            {
              "name": "Cookie",
              "value": "_ga=GA1.3.399930531.1538323182; visit=154624088703203243"
            },
            {
              "name": "Connection",
              "value": "keep-alive"
            },
            {
              "name": "Cache-Control",
              "value": "no-cache"
            }
          ],
          "queryString": [
            {
              "name": "ts",
              "value": "1avy1"
            }
          ],
          "cookies": [
            {
              "name": "_ga",
              "value": "GA1.3.399930531.1538323182",
              "expires": null,
              "httpOnly": false,
              "secure": false
            },
            {
              "name": "visit",
              "value": "154624088703203243",
              "expires": null,
              "httpOnly": false,
              "secure": false
            }
          ],
          "headersSize": 494,
          "bodySize": 0
        },
        "response": {
          "status": 200,
          "statusText": "OK",
          "httpVersion": "HTTP/1.1",
          "headers": [
            {
              "name": "Pragma",
              "value": "no-cache"
            },
            {
              "name": "Date",
              "value": "Mon, 31 Dec 2018 07:23:16 GMT"
            },
            {
              "name": "Content-Encoding",
              "value": "gzip"
            },
            {
              "name": "Last-Modified",
              "value": "Mon, 31 Dec 2018 07:23:16 GMT"
            },
            {
              "name": "X-Powered-By",
              "value": "Total.js"
            },
            {
              "name": "Etag",
              "value": "8581100"
            },
            {
              "name": "Vary",
              "value": "Accept-Encoding"
            },
            {
              "name": "Content-Type",
              "value": "text/css; charset=utf-8"
            },
            {
              "name": "Access-Control-Allow-Origin",
              "value": "*"
            },
            {
              "name": "Cache-Control",
              "value": "private, no-cache, no-store, max-age=0"
            },
            {
              "name": "Connection",
              "value": "keep-alive"
            },
            {
              "name": "Content-Length",
              "value": "831"
            },
            {
              "name": "Expires",
              "value": "-1"
            }
          ],
          "cookies": [],
          "content": {
            "size": 2612,
            "mimeType": "text/css",
            "compression": 1781
          },
          "redirectURL": "",
          "headersSize": 390,
          "bodySize": 831,
          "_transferSize": 1221
        },
        "cache": {},
        "timings": {
          "blocked": 9.940000000043234,
          "dns": -1,
          "ssl": -1,
          "connect": -1,
          "send": 0.1379999999999999,
          "wait": 9.467999999947947,
          "receive": 1.4250000001538865,
          "_blocked_queueing": 1.7390000000432337
        },
        "serverIPAddress": "172.16.32.150",
        "_initiator": {
          "type": "parser",
          "url": "http://acm.ut.ac.ir:8888/checkout/18123110520001cws1/",
          "lineNumber": 0
        },
        "_priority": "VeryHigh",
        "connection": "4578",
        "pageref": "page_7"
      },
      {
        "startedDateTime": "2018-12-31T07:23:16.763Z",
        "time": 1007.664999999987,
        "request": {
          "method": "GET",
          "url": "http://cdn.componentator.com/spa.min@14.js",
          "httpVersion": "http/1.1",
          "headers": [
            {
              "name": "Referer",
              "value": "http://acm.ut.ac.ir:8888/checkout/18123110520001cws1/"
            },
            {
              "name": "User-Agent",
              "value": "Mozilla/5.0 (Macintosh; Intel Mac OS X 10_14_2) AppleWebKit/537.36 (KHTML, like Gecko) Chrome/71.0.3578.98 Safari/537.36"
            }
          ],
          "queryString": [],
          "cookies": [],
          "headersSize": -1,
          "bodySize": 0
        },
        "response": {
          "status": 200,
          "statusText": "OK",
          "httpVersion": "http/1.1",
          "headers": [
            {
              "name": "Date",
              "value": "Mon, 31 Dec 2018 07:23:17 GMT"
            },
            {
              "name": "Content-Encoding",
              "value": "gzip"
            },
            {
              "name": "Last-Modified",
              "value": "Tue, 21 Aug 2018 07:51:29 GMT"
            },
            {
              "name": "Server",
              "value": "keycdn-engine"
            },
            {
              "name": "X-Edge-Location",
              "value": "nlam"
            },
            {
              "name": "ETag",
              "value": "W/\"5b7bc481-320e2\""
            },
            {
              "name": "Vary",
              "value": "Accept-Encoding"
            },
            {
              "name": "Content-Type",
              "value": "application/javascript; charset=utf-8"
            },
            {
              "name": "Access-Control-Allow-Origin",
              "value": "*"
            },
            {
              "name": "Cache-Control",
              "value": "max-age=43200"
            },
            {
              "name": "Transfer-Encoding",
              "value": "chunked"
            },
            {
              "name": "Connection",
              "value": "keep-alive"
            },
            {
              "name": "Expires",
              "value": "Mon, 31 Dec 2018 19:23:17 GMT"
            }
          ],
          "cookies": [],
          "content": {
            "size": 205026,
            "mimeType": "application/javascript"
          },
          "redirectURL": "",
          "headersSize": -1,
          "bodySize": -1,
          "_transferSize": 81221
        },
        "cache": {},
        "timings": {
          "blocked": 9.628000000043524,
          "dns": 9.461000000000002,
          "ssl": -1,
          "connect": 132.031,
          "send": 0.11899999999999977,
          "wait": 164.76900000009337,
          "receive": 691.6569999998501,
          "_blocked_queueing": 1.9190000000435248
        },
        "serverIPAddress": "185.172.149.128",
        "_initiator": {
          "type": "parser",
          "url": "http://acm.ut.ac.ir:8888/checkout/18123110520001cws1/",
          "lineNumber": 0
        },
        "_priority": "High",
        "connection": "4641",
        "pageref": "page_7"
      },
      {
        "startedDateTime": "2018-12-31T07:23:16.763Z",
        "time": 67.99599999999373,
        "request": {
          "method": "GET",
          "url": "http://acm.ut.ac.ir:8888/default/css/default.css",
          "httpVersion": "HTTP/1.1",
          "headers": [
            {
              "name": "Pragma",
              "value": "no-cache"
            },
            {
              "name": "Accept-Encoding",
              "value": "gzip, deflate"
            },
            {
              "name": "Host",
              "value": "acm.ut.ac.ir:8888"
            },
            {
              "name": "Accept-Language",
              "value": "en-GB,en;q=0.9,fa;q=0.8"
            },
            {
              "name": "User-Agent",
              "value": "Mozilla/5.0 (Macintosh; Intel Mac OS X 10_14_2) AppleWebKit/537.36 (KHTML, like Gecko) Chrome/71.0.3578.98 Safari/537.36"
            },
            {
              "name": "Accept",
              "value": "text/css,*/*;q=0.1"
            },
            {
              "name": "Referer",
              "value": "http://acm.ut.ac.ir:8888/checkout/18123110520001cws1/"
            },
            {
              "name": "Cookie",
              "value": "_ga=GA1.3.399930531.1538323182; visit=154624088703203243"
            },
            {
              "name": "Connection",
              "value": "keep-alive"
            },
            {
              "name": "Cache-Control",
              "value": "no-cache"
            }
          ],
          "queryString": [],
          "cookies": [
            {
              "name": "_ga",
              "value": "GA1.3.399930531.1538323182",
              "expires": null,
              "httpOnly": false,
              "secure": false
            },
            {
              "name": "visit",
              "value": "154624088703203243",
              "expires": null,
              "httpOnly": false,
              "secure": false
            }
          ],
          "headersSize": 497,
          "bodySize": 0
        },
        "response": {
          "status": 200,
          "statusText": "OK",
          "httpVersion": "HTTP/1.1",
          "headers": [
            {
              "name": "Pragma",
              "value": "no-cache"
            },
            {
              "name": "Date",
              "value": "Mon, 31 Dec 2018 07:23:16 GMT"
            },
            {
              "name": "Content-Encoding",
              "value": "gzip"
            },
            {
              "name": "Last-Modified",
              "value": "Mon, 31 Dec 2018 07:23:16 GMT"
            },
            {
              "name": "X-Powered-By",
              "value": "Total.js"
            },
            {
              "name": "Etag",
              "value": "8581100"
            },
            {
              "name": "Vary",
              "value": "Accept-Encoding"
            },
            {
              "name": "Content-Type",
              "value": "text/css; charset=utf-8"
            },
            {
              "name": "Access-Control-Allow-Origin",
              "value": "*"
            },
            {
              "name": "Cache-Control",
              "value": "private, no-cache, no-store, max-age=0"
            },
            {
              "name": "Connection",
              "value": "keep-alive"
            },
            {
              "name": "Content-Length",
              "value": "5483"
            },
            {
              "name": "Expires",
              "value": "-1"
            }
          ],
          "cookies": [],
          "content": {
            "size": 27658,
            "mimeType": "text/css",
            "compression": 22175
          },
          "redirectURL": "",
          "headersSize": 391,
          "bodySize": 5483,
          "_transferSize": 5874
        },
        "cache": {},
        "timings": {
          "blocked": 20.93800000015578,
          "dns": -1,
          "ssl": -1,
          "connect": -1,
          "send": 0.08500000000000085,
          "wait": 43.32099999996342,
          "receive": 3.6519999998745334,
          "_blocked_queueing": 2.5950000001557783
        },
        "serverIPAddress": "172.16.32.150",
        "_initiator": {
          "type": "parser",
          "url": "http://acm.ut.ac.ir:8888/checkout/18123110520001cws1/",
          "lineNumber": 0
        },
        "_priority": "VeryHigh",
        "connection": "4578",
        "pageref": "page_7"
      },
      {
        "startedDateTime": "2018-12-31T07:23:16.764Z",
        "time": 842.3789999999372,
        "request": {
          "method": "GET",
          "url": "http://acm.ut.ac.ir:8888/default/js/default.js",
          "httpVersion": "HTTP/1.1",
          "headers": [
            {
              "name": "Pragma",
              "value": "no-cache"
            },
            {
              "name": "Accept-Encoding",
              "value": "gzip, deflate"
            },
            {
              "name": "Host",
              "value": "acm.ut.ac.ir:8888"
            },
            {
              "name": "Accept-Language",
              "value": "en-GB,en;q=0.9,fa;q=0.8"
            },
            {
              "name": "User-Agent",
              "value": "Mozilla/5.0 (Macintosh; Intel Mac OS X 10_14_2) AppleWebKit/537.36 (KHTML, like Gecko) Chrome/71.0.3578.98 Safari/537.36"
            },
            {
              "name": "Accept",
              "value": "*/*"
            },
            {
              "name": "Referer",
              "value": "http://acm.ut.ac.ir:8888/checkout/18123110520001cws1/"
            },
            {
              "name": "Cookie",
              "value": "_ga=GA1.3.399930531.1538323182; visit=154624088703203243"
            },
            {
              "name": "Connection",
              "value": "keep-alive"
            },
            {
              "name": "Cache-Control",
              "value": "no-cache"
            }
          ],
          "queryString": [],
          "cookies": [
            {
              "name": "_ga",
              "value": "GA1.3.399930531.1538323182",
              "expires": null,
              "httpOnly": false,
              "secure": false
            },
            {
              "name": "visit",
              "value": "154624088703203243",
              "expires": null,
              "httpOnly": false,
              "secure": false
            }
          ],
          "headersSize": 480,
          "bodySize": 0
        },
        "response": {
          "status": 200,
          "statusText": "OK",
          "httpVersion": "HTTP/1.1",
          "headers": [
            {
              "name": "Pragma",
              "value": "no-cache"
            },
            {
              "name": "Date",
              "value": "Mon, 31 Dec 2018 07:23:17 GMT"
            },
            {
              "name": "Content-Encoding",
              "value": "gzip"
            },
            {
              "name": "Last-Modified",
              "value": "Mon, 31 Dec 2018 07:23:17 GMT"
            },
            {
              "name": "X-Powered-By",
              "value": "Total.js"
            },
            {
              "name": "Etag",
              "value": "8581100"
            },
            {
              "name": "Vary",
              "value": "Accept-Encoding"
            },
            {
              "name": "Content-Type",
              "value": "text/javascript; charset=utf-8"
            },
            {
              "name": "Access-Control-Allow-Origin",
              "value": "*"
            },
            {
              "name": "Cache-Control",
              "value": "private, no-cache, no-store, max-age=0"
            },
            {
              "name": "Connection",
              "value": "keep-alive"
            },
            {
              "name": "Content-Length",
              "value": "9253"
            },
            {
              "name": "Expires",
              "value": "-1"
            }
          ],
          "cookies": [],
          "content": {
            "size": 35548,
            "mimeType": "text/javascript",
            "compression": 26295
          },
          "redirectURL": "",
          "headersSize": 398,
          "bodySize": 9253,
          "_transferSize": 9651
        },
        "cache": {},
        "timings": {
          "blocked": 71.11299999987868,
          "dns": -1,
          "ssl": -1,
          "connect": -1,
          "send": 0.06999999999999318,
          "wait": 685.3009999998943,
          "receive": 85.89500000016415,
          "_blocked_queueing": 6.216999999878681
        },
        "serverIPAddress": "172.16.32.150",
        "_initiator": {
          "type": "parser",
          "url": "http://acm.ut.ac.ir:8888/checkout/18123110520001cws1/",
          "lineNumber": 0
        },
        "_priority": "High",
        "connection": "4578",
        "pageref": "page_7"
      },
      {
        "startedDateTime": "2018-12-31T07:23:16.764Z",
        "time": 225.68000000015104,
        "request": {
          "method": "GET",
          "url": "http://acm.ut.ac.ir:8888/img/logo.png",
          "httpVersion": "HTTP/1.1",
          "headers": [
            {
              "name": "Pragma",
              "value": "no-cache"
            },
            {
              "name": "Accept-Encoding",
              "value": "gzip, deflate"
            },
            {
              "name": "Host",
              "value": "acm.ut.ac.ir:8888"
            },
            {
              "name": "Accept-Language",
              "value": "en-GB,en;q=0.9,fa;q=0.8"
            },
            {
              "name": "User-Agent",
              "value": "Mozilla/5.0 (Macintosh; Intel Mac OS X 10_14_2) AppleWebKit/537.36 (KHTML, like Gecko) Chrome/71.0.3578.98 Safari/537.36"
            },
            {
              "name": "Accept",
              "value": "image/webp,image/apng,image/*,*/*;q=0.8"
            },
            {
              "name": "Referer",
              "value": "http://acm.ut.ac.ir:8888/checkout/18123110520001cws1/"
            },
            {
              "name": "Cookie",
              "value": "_ga=GA1.3.399930531.1538323182; visit=154624088703203243"
            },
            {
              "name": "Connection",
              "value": "keep-alive"
            },
            {
              "name": "Cache-Control",
              "value": "no-cache"
            }
          ],
          "queryString": [],
          "cookies": [
            {
              "name": "_ga",
              "value": "GA1.3.399930531.1538323182",
              "expires": null,
              "httpOnly": false,
              "secure": false
            },
            {
              "name": "visit",
              "value": "154624088703203243",
              "expires": null,
              "httpOnly": false,
              "secure": false
            }
          ],
          "headersSize": 507,
          "bodySize": 0
        },
        "response": {
          "status": 200,
          "statusText": "OK",
          "httpVersion": "HTTP/1.1",
          "headers": [
            {
              "name": "Pragma",
              "value": "no-cache"
            },
            {
              "name": "Date",
              "value": "Mon, 31 Dec 2018 07:23:16 GMT"
            },
            {
              "name": "Last-Modified",
              "value": "Tue, 25 Dec 2018 13:28:46 GMT"
            },
            {
              "name": "X-Powered-By",
              "value": "Total.js"
            },
            {
              "name": "Etag",
              "value": "8581100"
            },
            {
              "name": "Vary",
              "value": "Accept-Encoding"
            },
            {
              "name": "Content-Type",
              "value": "image/png"
            },
            {
              "name": "Access-Control-Allow-Origin",
              "value": "*"
            },
            {
              "name": "Cache-Control",
              "value": "private, no-cache, no-store, max-age=0"
            },
            {
              "name": "Connection",
              "value": "keep-alive"
            },
            {
              "name": "Content-Length",
              "value": "13192"
            },
            {
              "name": "Expires",
              "value": "-1"
            }
          ],
          "cookies": [],
          "content": {
            "size": 13192,
            "mimeType": "image/png",
            "compression": 0
          },
          "redirectURL": "",
          "headersSize": 354,
          "bodySize": 13192,
          "_transferSize": 13546
        },
        "cache": {},
        "timings": {
          "blocked": 9.454000000030966,
          "dns": 22.885,
          "ssl": -1,
          "connect": 90.93299999999999,
          "send": 0.19700000000000273,
          "wait": 37.35800000003543,
          "receive": 64.85300000008465,
          "_blocked_queueing": 6.6520000000309665
        },
        "serverIPAddress": "172.16.32.150",
        "_initiator": {
          "type": "parser",
          "url": "http://acm.ut.ac.ir:8888/checkout/18123110520001cws1/",
          "lineNumber": 0
        },
        "_priority": "Low",
        "connection": "4643",
        "pageref": "page_7"
      },
      {
        "startedDateTime": "2018-12-31T07:23:16.764Z",
        "time": 163.36199999992886,
        "request": {
          "method": "GET",
          "url": "http://acm.ut.ac.ir:8888/widgets.js?ts=1avy1",
          "httpVersion": "HTTP/1.1",
          "headers": [
            {
              "name": "Pragma",
              "value": "no-cache"
            },
            {
              "name": "Accept-Encoding",
              "value": "gzip, deflate"
            },
            {
              "name": "Host",
              "value": "acm.ut.ac.ir:8888"
            },
            {
              "name": "Accept-Language",
              "value": "en-GB,en;q=0.9,fa;q=0.8"
            },
            {
              "name": "User-Agent",
              "value": "Mozilla/5.0 (Macintosh; Intel Mac OS X 10_14_2) AppleWebKit/537.36 (KHTML, like Gecko) Chrome/71.0.3578.98 Safari/537.36"
            },
            {
              "name": "Accept",
              "value": "*/*"
            },
            {
              "name": "Referer",
              "value": "http://acm.ut.ac.ir:8888/checkout/18123110520001cws1/"
            },
            {
              "name": "Cookie",
              "value": "_ga=GA1.3.399930531.1538323182; visit=154624088703203243"
            },
            {
              "name": "Connection",
              "value": "keep-alive"
            },
            {
              "name": "Cache-Control",
              "value": "no-cache"
            }
          ],
          "queryString": [
            {
              "name": "ts",
              "value": "1avy1"
            }
          ],
          "cookies": [
            {
              "name": "_ga",
              "value": "GA1.3.399930531.1538323182",
              "expires": null,
              "httpOnly": false,
              "secure": false
            },
            {
              "name": "visit",
              "value": "154624088703203243",
              "expires": null,
              "httpOnly": false,
              "secure": false
            }
          ],
          "headersSize": 478,
          "bodySize": 0
        },
        "response": {
          "status": 200,
          "statusText": "OK",
          "httpVersion": "HTTP/1.1",
          "headers": [
            {
              "name": "Pragma",
              "value": "no-cache"
            },
            {
              "name": "Date",
              "value": "Mon, 31 Dec 2018 07:23:16 GMT"
            },
            {
              "name": "Content-Encoding",
              "value": "gzip"
            },
            {
              "name": "Last-Modified",
              "value": "Mon, 31 Dec 2018 07:23:16 GMT"
            },
            {
              "name": "X-Powered-By",
              "value": "Total.js"
            },
            {
              "name": "Etag",
              "value": "8581100"
            },
            {
              "name": "Vary",
              "value": "Accept-Encoding"
            },
            {
              "name": "Content-Type",
              "value": "text/javascript; charset=utf-8"
            },
            {
              "name": "Access-Control-Allow-Origin",
              "value": "*"
            },
            {
              "name": "Cache-Control",
              "value": "private, no-cache, no-store, max-age=0"
            },
            {
              "name": "Connection",
              "value": "keep-alive"
            },
            {
              "name": "Content-Length",
              "value": "20"
            },
            {
              "name": "Expires",
              "value": "-1"
            }
          ],
          "cookies": [],
          "content": {
            "size": 0,
            "mimeType": "text/javascript",
            "compression": -20
          },
          "redirectURL": "",
          "headersSize": 396,
          "bodySize": 20,
          "_transferSize": 416
        },
        "cache": {},
        "timings": {
          "blocked": 8.992000000091997,
          "dns": 22.979,
          "ssl": -1,
          "connect": 91.10600000000001,
          "send": 0.1910000000000025,
          "wait": 39.69300000005349,
          "receive": 0.4009999997833802,
          "_blocked_queueing": 6.898000000091997
        },
        "serverIPAddress": "172.16.32.150",
        "_initiator": {
          "type": "parser",
          "url": "http://acm.ut.ac.ir:8888/checkout/18123110520001cws1/",
          "lineNumber": 0
        },
        "_priority": "Medium",
        "connection": "4642",
        "pageref": "page_7"
      },
      {
        "startedDateTime": "2018-12-31T07:23:16.938Z",
        "time": 157.2679999999309,
        "request": {
          "method": "GET",
          "url": "https://fonts.googleapis.com/css?family=Source+Sans+Pro:400,200,700",
          "httpVersion": "http/2.0",
          "headers": [
            {
              "name": "Referer",
              "value": "http://acm.ut.ac.ir:8888/checkout/18123110520001cws1/"
            },
            {
              "name": "User-Agent",
              "value": "Mozilla/5.0 (Macintosh; Intel Mac OS X 10_14_2) AppleWebKit/537.36 (KHTML, like Gecko) Chrome/71.0.3578.98 Safari/537.36"
            }
          ],
          "queryString": [
            {
              "name": "family",
              "value": "Source+Sans+Pro:400,200,700"
            }
          ],
          "cookies": [],
          "headersSize": -1,
          "bodySize": 0
        },
        "response": {
          "status": 200,
          "statusText": "",
          "httpVersion": "http/2.0",
          "headers": [
            {
              "name": "strict-transport-security",
              "value": "max-age=31536000"
            },
            {
              "name": "content-encoding",
              "value": "br"
            },
            {
              "name": "last-modified",
              "value": "Mon, 31 Dec 2018 07:23:17 GMT"
            },
            {
              "name": "server",
              "value": "ESF"
            },
            {
              "name": "access-control-allow-origin",
              "value": "*"
            },
            {
              "name": "date",
              "value": "Mon, 31 Dec 2018 07:23:17 GMT"
            },
            {
              "name": "x-frame-options",
              "value": "SAMEORIGIN"
            },
            {
              "name": "content-type",
              "value": "text/css; charset=utf-8"
            },
            {
              "name": "status",
              "value": "200"
            },
            {
              "name": "alt-svc",
              "value": "quic=\":443\"; ma=2592000; v=\"44,43,39,35\""
            },
            {
              "name": "cache-control",
              "value": "private, max-age=86400, stale-while-revalidate=604800"
            },
            {
              "name": "timing-allow-origin",
              "value": "*"
            },
            {
              "name": "link",
              "value": "<https://fonts.gstatic.com>; rel=preconnect; crossorigin"
            },
            {
              "name": "x-xss-protection",
              "value": "1; mode=block"
            },
            {
              "name": "expires",
              "value": "Mon, 31 Dec 2018 07:23:17 GMT"
            }
          ],
          "cookies": [],
          "content": {
            "size": 7940,
            "mimeType": "text/css"
          },
          "redirectURL": "",
          "headersSize": -1,
          "bodySize": -1,
          "_transferSize": 764
        },
        "cache": {},
        "timings": {
          "blocked": 1.4759999999455466,
          "dns": -1,
          "ssl": -1,
          "connect": -1,
          "send": 0.235,
          "wait": 143.76499999997134,
          "receive": 11.792000000014013,
          "_blocked_queueing": 0.6969999999455467
        },
        "serverIPAddress": "172.217.20.10",
        "_initiator": {
          "type": "parser",
          "url": "http://acm.ut.ac.ir:8888/checkout/18123110520001cws1/",
          "lineNumber": 0
        },
        "_priority": "VeryHigh",
        "connection": "527",
        "pageref": "page_7"
      },
      {
        "startedDateTime": "2018-12-31T07:23:17.809Z",
        "time": 15.55699999994431,
        "request": {
          "method": "GET",
          "url": "http://acm.ut.ac.ir:8888/$visitors/",
          "httpVersion": "HTTP/1.1",
          "headers": [
            {
              "name": "Pragma",
              "value": "no-cache"
            },
            {
              "name": "Accept-Encoding",
              "value": "gzip, deflate"
            },
            {
              "name": "x-referrer",
              "value": "http://acm.ut.ac.ir:8888/checkout/"
            },
            {
              "name": "Accept-Language",
              "value": "en-GB,en;q=0.9,fa;q=0.8"
            },
            {
              "name": "Host",
              "value": "acm.ut.ac.ir:8888"
            },
            {
              "name": "User-Agent",
              "value": "Mozilla/5.0 (Macintosh; Intel Mac OS X 10_14_2) AppleWebKit/537.36 (KHTML, like Gecko) Chrome/71.0.3578.98 Safari/537.36"
            },
            {
              "name": "Accept",
              "value": "*/*"
            },
            {
              "name": "x-ping",
              "value": "/checkout/18123110520001cws1/"
            },
            {
              "name": "Cache-Control",
              "value": "no-cache"
            },
            {
              "name": "X-Requested-With",
              "value": "XMLHttpRequest"
            },
            {
              "name": "Cookie",
              "value": "_ga=GA1.3.399930531.1538323182; visit=154624088703203243"
            },
            {
              "name": "Connection",
              "value": "keep-alive"
            },
            {
              "name": "Referer",
              "value": "http://acm.ut.ac.ir:8888/checkout/18123110520001cws1/"
            },
            {
              "name": "x-cookies",
              "value": "1"
            }
          ],
          "queryString": [],
          "cookies": [
            {
              "name": "_ga",
              "value": "GA1.3.399930531.1538323182",
              "expires": null,
              "httpOnly": false,
              "secure": false
            },
            {
              "name": "visit",
              "value": "154624088703203243",
              "expires": null,
              "httpOnly": false,
              "secure": false
            }
          ],
          "headersSize": 604,
          "bodySize": 0
        },
        "response": {
          "status": 200,
          "statusText": "OK",
          "httpVersion": "HTTP/1.1",
          "headers": [
            {
              "name": "Date",
              "value": "Mon, 31 Dec 2018 07:23:17 GMT"
            },
            {
              "name": "X-Powered-By",
              "value": "Total.js"
            },
            {
              "name": "Vary",
              "value": "Accept-Encoding"
            },
            {
              "name": "Content-Type",
              "value": "text/plain; charset=utf-8"
            },
            {
              "name": "Set-Cookie",
              "value": "visit=154624099782603243; Expires=Sat, 05 Jan 2019 07:23:17 GMT; Path=/"
            },
            {
              "name": "Cache-Control",
              "value": "private, no-cache, no-store, max-age=0"
            },
            {
              "name": "Transfer-Encoding",
              "value": "chunked"
            },
            {
              "name": "Connection",
              "value": "keep-alive"
            },
            {
              "name": "Expires",
              "value": "-1"
            }
          ],
          "cookies": [
            {
              "name": "visit",
              "value": "154624099782603243",
              "path": "/",
              "expires": "2019-01-05T07:23:17.000Z",
              "httpOnly": false,
              "secure": false
            }
          ],
          "content": {
            "size": 0,
            "mimeType": "text/plain",
            "compression": -5
          },
          "redirectURL": "",
          "headersSize": 349,
          "bodySize": 5,
          "_transferSize": 354
        },
        "cache": {},
        "timings": {
          "blocked": 1.2759999999503053,
          "dns": -1,
          "ssl": -1,
          "connect": -1,
          "send": 0.04600000000000004,
          "wait": 13.464000000007916,
          "receive": 0.7709999999860884,
          "_blocked_queueing": 0.5149999999503052
        },
        "serverIPAddress": "172.16.32.150",
        "_initiator": {
          "type": "script",
          "stack": {
            "callFrames": [
              {
                "functionName": "send",
                "scriptId": "1782",
                "url": "http://cdn.componentator.com/spa.min@14.js",
                "lineNumber": 2,
                "columnNumber": 80265
              },
              {
                "functionName": "ajax",
                "scriptId": "1782",
                "url": "http://cdn.componentator.com/spa.min@14.js",
                "lineNumber": 2,
                "columnNumber": 77117
              },
              {
                "functionName": "",
                "scriptId": "1783",
                "url": "http://acm.ut.ac.ir:8888/default/js/default.js",
                "lineNumber": 14,
                "columnNumber": 446
              },
              {
                "functionName": "",
                "scriptId": "1783",
                "url": "http://acm.ut.ac.ir:8888/default/js/default.js",
                "lineNumber": 14,
                "columnNumber": 631
              }
            ]
          }
        },
        "_priority": "High",
        "connection": "4578",
        "pageref": "page_7"
      },
      {
        "startedDateTime": "2018-12-31T07:23:17.822Z",
        "time": 1647.0839999999655,
        "request": {
          "method": "GET",
          "url": "http://cdn.componentator.com/fonts/fontawesome-webfont.woff2?v=4.7.0",
          "httpVersion": "http/1.1",
          "headers": [
            {
              "name": "User-Agent",
              "value": "Mozilla/5.0 (Macintosh; Intel Mac OS X 10_14_2) AppleWebKit/537.36 (KHTML, like Gecko) Chrome/71.0.3578.98 Safari/537.36"
            },
            {
              "name": "Referer",
              "value": "http://cdn.componentator.com/spa.min@14.css"
            },
            {
              "name": "Origin",
              "value": "http://acm.ut.ac.ir:8888"
            }
          ],
          "queryString": [
            {
              "name": "v",
              "value": "4.7.0"
            }
          ],
          "cookies": [],
          "headersSize": -1,
          "bodySize": 0
        },
        "response": {
          "status": 200,
          "statusText": "OK",
          "httpVersion": "http/1.1",
          "headers": [
            {
              "name": "Date",
              "value": "Mon, 31 Dec 2018 07:23:19 GMT"
            },
            {
              "name": "Last-Modified",
              "value": "Sun, 05 Mar 2017 21:44:14 GMT"
            },
            {
              "name": "Server",
              "value": "keycdn-engine"
            },
            {
              "name": "X-Edge-Location",
              "value": "nlam"
            },
            {
              "name": "ETag",
              "value": "\"58bc86ae-12d68\""
            },
            {
              "name": "Content-Type",
              "value": "font/woff2"
            },
            {
              "name": "Access-Control-Allow-Origin",
              "value": "*"
            },
            {
              "name": "Cache-Control",
              "value": "max-age=43200"
            },
            {
              "name": "Connection",
              "value": "keep-alive"
            },
            {
              "name": "Accept-Ranges",
              "value": "bytes"
            },
            {
              "name": "Content-Length",
              "value": "77160"
            },
            {
              "name": "Expires",
              "value": "Mon, 31 Dec 2018 19:23:19 GMT"
            }
          ],
          "cookies": [],
          "content": {
            "size": 77160,
            "mimeType": "font/woff2"
          },
          "redirectURL": "",
          "headersSize": -1,
          "bodySize": -1,
          "_transferSize": 77529
        },
        "cache": {},
        "timings": {
          "blocked": 3.372000000066808,
          "dns": 15.181000000000001,
          "ssl": -1,
          "connect": 1202.197,
          "send": 0.1449999999999818,
          "wait": 155.94399999996722,
          "receive": 270.2449999999317,
          "_blocked_queueing": 0.6940000000668078
        },
        "serverIPAddress": "185.172.149.128",
        "_initiator": {
          "type": "parser",
          "url": "http://acm.ut.ac.ir:8888/checkout/18123110520001cws1/",
          "lineNumber": 0
        },
        "_priority": "VeryHigh",
        "connection": "4682",
        "pageref": "page_7"
      },
      {
        "startedDateTime": "2018-12-31T07:23:17.822Z",
        "time": 1204.9160000001393,
        "request": {
          "method": "GET",
          "url": "https://fonts.gstatic.com/s/sourcesanspro/v11/6xKydSBYKcSV-LCoeQqfX1RYOo3ig4vwlxdu3cOWxw.woff2",
          "httpVersion": "http/2.0",
          "headers": [
            {
              "name": "User-Agent",
              "value": "Mozilla/5.0 (Macintosh; Intel Mac OS X 10_14_2) AppleWebKit/537.36 (KHTML, like Gecko) Chrome/71.0.3578.98 Safari/537.36"
            },
            {
              "name": "Referer",
              "value": "https://fonts.googleapis.com/css?family=Source+Sans+Pro:400,200,700"
            },
            {
              "name": "Origin",
              "value": "http://acm.ut.ac.ir:8888"
            }
          ],
          "queryString": [],
          "cookies": [],
          "headersSize": -1,
          "bodySize": 0
        },
        "response": {
          "status": 200,
          "statusText": "",
          "httpVersion": "http/2.0",
          "headers": [
            {
              "name": "date",
              "value": "Tue, 18 Dec 2018 14:59:50 GMT"
            },
            {
              "name": "x-content-type-options",
              "value": "nosniff"
            },
            {
              "name": "last-modified",
              "value": "Wed, 11 Oct 2017 18:26:10 GMT"
            },
            {
              "name": "server",
              "value": "sffe"
            },
            {
              "name": "age",
              "value": "1095807"
            },
            {
              "name": "content-type",
              "value": "font/woff2"
            },
            {
              "name": "status",
              "value": "200"
            },
            {
              "name": "alt-svc",
              "value": "quic=\":443\"; ma=2592000; v=\"44,43,39,35\""
            },
            {
              "name": "cache-control",
              "value": "public, max-age=31536000"
            },
            {
              "name": "accept-ranges",
              "value": "bytes"
            },
            {
              "name": "timing-allow-origin",
              "value": "*"
            },
            {
              "name": "access-control-allow-origin",
              "value": "*"
            },
            {
              "name": "content-length",
              "value": "12600"
            },
            {
              "name": "x-xss-protection",
              "value": "1; mode=block"
            },
            {
              "name": "expires",
              "value": "Wed, 18 Dec 2019 14:59:50 GMT"
            }
          ],
          "cookies": [],
          "content": {
            "size": 12600,
            "mimeType": "font/woff2"
          },
          "redirectURL": "",
          "headersSize": -1,
          "bodySize": -1,
          "_transferSize": 12666
        },
        "cache": {},
        "timings": {
          "blocked": 3.4210000000676084,
          "dns": -1,
          "ssl": -1,
          "connect": -1,
          "send": 0.16199999999999992,
          "wait": 117.24100000001658,
          "receive": 1084.0920000000551,
          "_blocked_queueing": 1.1890000000676082
        },
        "serverIPAddress": "172.217.16.99",
        "_initiator": {
          "type": "parser",
          "url": "http://acm.ut.ac.ir:8888/checkout/18123110520001cws1/",
          "lineNumber": 0
        },
        "_priority": "VeryHigh",
        "connection": "590",
        "pageref": "page_7"
      }
    ]
  }
}